{
	"source": "UE",
	"applications": [
		{
			"app_key": "application.generated.ue.revamppoliticalpunch-13942748.ue4editor.exe",
			"launch_type": "url",
			"url": "steam://launch/",
			"action_manifest_path": "C:/Users/antho/Documents/Unreal Projects/revampPoliticalPunch/Config/SteamVRBindings/steamvr_manifest.json",
			"strings":
			{
				"en_us":
				{
					"name": "revampPoliticalPunch-13942748 [UE Editor]"
				}
			}
		}
	]
}